<?xml version="1.0" encoding="utf-8"?>
<!-- Generator: Adobe Illustrator 24.1.0, SVG Export Plug-In . SVG Version: 6.00 Build 0)  -->
<svg version="1.1" id="Calque_1" xmlns="http://www.w3.org/2000/svg" xmlns:xlink="http://www.w3.org/1999/xlink" x="0px" y="0px"
	 viewBox="0 0 392.5 98.1" style="enable-background:new 0 0 392.5 98.1;" xml:space="preserve">
<style type="text/css">
	.st0{fill:#FFFFFF;}
	.st1{fill:#3792FD;}
</style>
<g>
	<path class="st0" d="M351.8,82.1c0-0.8,0.2-1.4,0.6-1.8c0.4-0.5,1-0.7,1.7-0.7c0.4,0,0.8,0.1,1,0.4c0.3,0.3,0.4,0.7,0.4,1.2
		c0,0.7-0.2,1.3-0.6,1.8c-0.4,0.5-0.9,0.7-1.6,0.7c-0.5,0-0.8-0.1-1.1-0.4S351.8,82.6,351.8,82.1z"/>
	<path class="st0" d="M366.3,83.5c-1.8,0-3.3-0.5-4.3-1.6s-1.6-2.6-1.6-4.5c0-1.9,0.4-3.7,1.1-5.4c0.7-1.7,1.7-3.1,3-4
		c1.2-1,2.6-1.4,4.1-1.4c1.5,0,2.7,0.3,3.5,1c0.8,0.7,1.2,1.6,1.2,2.8c0,1.8-0.8,3.2-2.5,4.2c-1.7,1-4,1.5-7.1,1.5h-0.5l-0.1,1.2
		c0,1.3,0.3,2.3,0.9,3.1c0.6,0.7,1.6,1.1,2.9,1.1c0.6,0,1.3-0.1,1.9-0.3c0.7-0.2,1.5-0.5,2.5-1v2.2c-0.9,0.4-1.8,0.7-2.5,0.9
		C368,83.4,367.2,83.5,366.3,83.5z M368.4,68.6c-1,0-2,0.5-2.9,1.4c-0.9,0.9-1.6,2.2-2.1,3.9h0.2c2.3,0,4-0.3,5.2-0.9
		s1.8-1.5,1.8-2.6c0-0.5-0.2-1-0.5-1.3S369.2,68.6,368.4,68.6z"/>
	<path class="st0" d="M380.9,66.7l-2.3,10.4c-0.2,0.9-0.3,1.6-0.3,2.1c0,1.4,0.7,2.1,2.2,2.1c0.9,0,1.7-0.3,2.6-0.9
		c0.9-0.6,1.6-1.5,2.3-2.6c0.7-1.1,1.1-2.5,1.5-4.1l1.5-7.1h2.5l-3.5,16.5h-2.1l0.3-3h-0.2c-1,1.3-1.9,2.1-2.8,2.6s-1.8,0.7-2.8,0.7
		c-1.3,0-2.3-0.3-3-1s-1.1-1.7-1.1-3c0-0.6,0.1-1.5,0.3-2.6l2.2-10.1H380.9z"/>
</g>
<g>
	<path id="Arrows_1_" class="st1" d="M271.1,62.5c0.2,0.2,0.2,0.6,0,0.8L247.3,88l13,6.1c0.3,0.1,0.4,0.4,0.4,0.7
		c0,0.2-0.3,0.4-0.6,0.5l-29.7,1.9l-0.1,0c-0.1,0-0.3,0-0.4-0.1l0,0c-0.1-0.1-0.2-0.2-0.2-0.3c-0.1-0.1-0.1-0.3,0-0.4l6.1-28
		c0-0.2,0.3-0.4,0.6-0.5c0.3,0,0.5,0.2,0.7,0.4l4.4,13.3l28.8-19.1C270.5,62.2,270.8,62.3,271.1,62.5z M341.7,1.8
		c-0.1-0.1-0.1-0.2-0.3-0.3c0,0,0,0-0.1,0c-0.1-0.1-0.2-0.1-0.3-0.1l-29.7,1.9c-0.3,0-0.6,0.2-0.6,0.5s0.1,0.5,0.4,0.7l13,6.1
		l-23.8,24.7c-0.2,0.3-0.2,0.6,0,0.8c0.1,0.2,0.3,0.2,0.5,0.2c0.1,0,0.3,0,0.3-0.1L329.9,17l4.4,13.3c0.1,0.2,0.3,0.5,0.7,0.4
		c0.3,0,0.6-0.2,0.6-0.5l6.2-28C341.8,2.1,341.7,1.9,341.7,1.8z"/>
	<path class="st0" d="M25.3,83.2H10.1c-4.7,0-8.5-3.8-8.5-8.5V14.8h23.7V83.2z"/>
	<path class="st0" d="M338.5,83.1h-24.2c-5.1,0-10.1-1.8-13.9-5l-69.3-63.4h24.2c5.1,0,10.1,1.8,14,5L338.5,83.1z"/>
	<path class="st0" d="M91,14.7l-15.9,0v0H51.4v58.7c0,5.3,4.5,9.6,10,9.6h13.7V54.3c3.8,0,16.1,0.1,25.3,0.1
		c10.8,0,31.7-4.9,31.7-20.3C132.1,18.6,114.3,14.7,91,14.7z M92.3,45.4c-6,0-14.3-0.1-17.2-0.2V21.8h15.3
		c8.8-0.1,15.3,5.4,15.3,11.7C105.7,39.8,99.8,45.4,92.3,45.4z"/>
	<path class="st0" d="M220.6,21.9v-7.1h-50.3h-23.7v7.1v51.6c0,5.3,4.5,9.7,10,9.7h13.7h50.3v-7.1h-50.3V51.4h38.6v-7.1h-38.6V21.9
		H220.6z"/>
</g>
</svg>
